/*
WARNING: Do NOT edit the input and output ports in this file in a text
editor if you plan to continue editing the block that represents it in
the Block Editor! File corruption is VERY likely to occur.
*/
/*
Copyright (C) 1991-2013 Altera Corporation
Your use of Altera Corporation's design tools, logic functions 
and other software and tools, and its AMPP partner logic 
functions, and any output files from any of the foregoing 
(including device programming or simulation files), and any 
associated documentation or information are expressly subject 
to the terms and conditions of the Altera Program License 
Subscription Agreement, Altera MegaCore Function License 
Agreement, or other applicable license agreement, including, 
without limitation, that your use is for the sole purpose of 
programming logic devices manufactured by Altera and sold by 
Altera or its authorized distributors.  Please refer to the 
applicable agreement for further details.
*/
(header "graphic" (version "1.4"))
(pin
	(input)
	(rect 160 496 328 512)
	(text "INPUT" (rect 125 0 153 10)(font "Arial" (font_size 6)))
	(text "clk" (rect 5 0 19 12)(font "Arial" ))
	(pt 168 8)
	(drawing
		(line (pt 84 12)(pt 109 12))
		(line (pt 84 4)(pt 109 4))
		(line (pt 113 8)(pt 168 8))
		(line (pt 84 12)(pt 84 4))
		(line (pt 109 4)(pt 113 8))
		(line (pt 109 12)(pt 113 8))
	)
	(text "VCC" (rect 128 7 148 17)(font "Arial" (font_size 6)))
)
(pin
	(input)
	(rect 1032 656 1200 672)
	(text "INPUT" (rect 125 0 153 10)(font "Arial" (font_size 6)))
	(text "reset" (rect 5 0 29 12)(font "Arial" ))
	(pt 168 8)
	(drawing
		(line (pt 84 12)(pt 109 12))
		(line (pt 84 4)(pt 109 4))
		(line (pt 113 8)(pt 168 8))
		(line (pt 84 12)(pt 84 4))
		(line (pt 109 4)(pt 113 8))
		(line (pt 109 12)(pt 113 8))
	)
	(text "VCC" (rect 128 7 148 17)(font "Arial" (font_size 6)))
)
(pin
	(input)
	(rect 144 352 312 368)
	(text "INPUT" (rect 125 0 153 10)(font "Arial" (font_size 6)))
	(text "off" (rect 5 0 20 12)(font "Arial" ))
	(pt 168 8)
	(drawing
		(line (pt 84 12)(pt 109 12))
		(line (pt 84 4)(pt 109 4))
		(line (pt 113 8)(pt 168 8))
		(line (pt 84 12)(pt 84 4))
		(line (pt 109 4)(pt 113 8))
		(line (pt 109 12)(pt 113 8))
	)
	(text "VCC" (rect 128 7 148 17)(font "Arial" (font_size 6)))
)
(pin
	(output)
	(rect 1328 112 1504 128)
	(text "OUTPUT" (rect 1 0 39 10)(font "Arial" (font_size 6)))
	(text "out[0]" (rect 90 0 118 12)(font "Arial" ))
	(pt 0 8)
	(drawing
		(line (pt 0 8)(pt 52 8))
		(line (pt 52 4)(pt 78 4))
		(line (pt 52 12)(pt 78 12))
		(line (pt 52 12)(pt 52 4))
		(line (pt 78 4)(pt 82 8))
		(line (pt 82 8)(pt 78 12))
		(line (pt 78 12)(pt 82 8))
	)
)
(pin
	(output)
	(rect 1328 128 1504 144)
	(text "OUTPUT" (rect 1 0 39 10)(font "Arial" (font_size 6)))
	(text "out[1]" (rect 90 0 118 12)(font "Arial" ))
	(pt 0 8)
	(drawing
		(line (pt 0 8)(pt 52 8))
		(line (pt 52 4)(pt 78 4))
		(line (pt 52 12)(pt 78 12))
		(line (pt 52 12)(pt 52 4))
		(line (pt 78 4)(pt 82 8))
		(line (pt 82 8)(pt 78 12))
		(line (pt 78 12)(pt 82 8))
	)
)
(pin
	(output)
	(rect 1328 144 1504 160)
	(text "OUTPUT" (rect 1 0 39 10)(font "Arial" (font_size 6)))
	(text "out[2]" (rect 90 0 118 12)(font "Arial" ))
	(pt 0 8)
	(drawing
		(line (pt 0 8)(pt 52 8))
		(line (pt 52 4)(pt 78 4))
		(line (pt 52 12)(pt 78 12))
		(line (pt 52 12)(pt 52 4))
		(line (pt 78 4)(pt 82 8))
		(line (pt 82 8)(pt 78 12))
		(line (pt 78 12)(pt 82 8))
	)
)
(pin
	(output)
	(rect 1328 160 1504 176)
	(text "OUTPUT" (rect 1 0 39 10)(font "Arial" (font_size 6)))
	(text "out[3]" (rect 90 0 118 12)(font "Arial" ))
	(pt 0 8)
	(drawing
		(line (pt 0 8)(pt 52 8))
		(line (pt 52 4)(pt 78 4))
		(line (pt 52 12)(pt 78 12))
		(line (pt 52 12)(pt 52 4))
		(line (pt 78 4)(pt 82 8))
		(line (pt 82 8)(pt 78 12))
		(line (pt 78 12)(pt 82 8))
	)
)
(pin
	(output)
	(rect 1328 176 1504 192)
	(text "OUTPUT" (rect 1 0 39 10)(font "Arial" (font_size 6)))
	(text "out[4]" (rect 90 0 118 12)(font "Arial" ))
	(pt 0 8)
	(drawing
		(line (pt 0 8)(pt 52 8))
		(line (pt 52 4)(pt 78 4))
		(line (pt 52 12)(pt 78 12))
		(line (pt 52 12)(pt 52 4))
		(line (pt 78 4)(pt 82 8))
		(line (pt 82 8)(pt 78 12))
		(line (pt 78 12)(pt 82 8))
	)
)
(symbol
	(rect 472 256 592 440)
	(text "74163" (rect 44 0 85 16)(font "Arial" (font_size 10)))
	(text "inst" (rect 3 173 18 183)(font "Arial" (font_size 6)))
	(port
		(pt 0 72)
		(input)
		(text "C" (rect 21 64 29 78)(font "Arial" (font_size 8)))
		(text "C" (rect 21 64 29 78)(font "Arial" (font_size 8)))
		(line (pt 0 72)(pt 16 72))
	)
	(port
		(pt 0 56)
		(input)
		(text "B" (rect 21 48 29 62)(font "Arial" (font_size 8)))
		(text "B" (rect 21 48 29 62)(font "Arial" (font_size 8)))
		(line (pt 0 56)(pt 16 56))
	)
	(port
		(pt 0 40)
		(input)
		(text "A" (rect 21 32 30 46)(font "Arial" (font_size 8)))
		(text "A" (rect 21 32 30 46)(font "Arial" (font_size 8)))
		(line (pt 0 40)(pt 16 40))
	)
	(port
		(pt 0 104)
		(input)
		(text "ENT" (rect 21 96 43 110)(font "Arial" (font_size 8)))
		(text "ENT" (rect 21 96 43 110)(font "Arial" (font_size 8)))
		(line (pt 0 104)(pt 16 104))
	)
	(port
		(pt 0 88)
		(input)
		(text "D" (rect 21 80 29 94)(font "Arial" (font_size 8)))
		(text "D" (rect 21 80 29 94)(font "Arial" (font_size 8)))
		(line (pt 0 88)(pt 16 88))
	)
	(port
		(pt 0 136)
		(input)
		(text "CLRN" (rect 21 128 52 142)(font "Arial" (font_size 8)))
		(text "CLRN" (rect 21 128 52 142)(font "Arial" (font_size 8)))
		(line (pt 0 136)(pt 8 136))
	)
	(port
		(pt 0 160)
		(input)
		(text "CLK" (rect 21 152 44 166)(font "Arial" (font_size 8)))
		(text "CLK" (rect 21 152 44 166)(font "Arial" (font_size 8)))
		(line (pt 0 160)(pt 16 160))
	)
	(port
		(pt 0 120)
		(input)
		(text "ENP" (rect 21 112 43 126)(font "Arial" (font_size 8)))
		(text "ENP" (rect 21 112 43 126)(font "Arial" (font_size 8)))
		(line (pt 0 120)(pt 16 120))
	)
	(port
		(pt 0 24)
		(input)
		(text "LDN" (rect 21 17 44 31)(font "Arial" (font_size 8)))
		(text "LDN" (rect 21 17 44 31)(font "Arial" (font_size 8)))
		(line (pt 0 24)(pt 8 24))
	)
	(port
		(pt 120 56)
		(output)
		(text "QA" (rect 85 48 103 62)(font "Arial" (font_size 8)))
		(text "QA" (rect 84 48 102 62)(font "Arial" (font_size 8)))
		(line (pt 104 56)(pt 120 56))
	)
	(port
		(pt 120 72)
		(output)
		(text "QB" (rect 85 64 102 78)(font "Arial" (font_size 8)))
		(text "QB" (rect 85 64 102 78)(font "Arial" (font_size 8)))
		(line (pt 104 72)(pt 120 72))
	)
	(port
		(pt 120 88)
		(output)
		(text "QC" (rect 85 80 102 94)(font "Arial" (font_size 8)))
		(text "QC" (rect 85 80 102 94)(font "Arial" (font_size 8)))
		(line (pt 104 88)(pt 120 88))
	)
	(port
		(pt 120 104)
		(output)
		(text "QD" (rect 85 96 102 110)(font "Arial" (font_size 8)))
		(text "QD" (rect 85 96 102 110)(font "Arial" (font_size 8)))
		(line (pt 104 104)(pt 120 104))
	)
	(port
		(pt 120 120)
		(output)
		(text "RCO" (rect 77 112 102 126)(font "Arial" (font_size 8)))
		(text "RCO" (rect 78 112 103 126)(font "Arial" (font_size 8)))
		(line (pt 104 120)(pt 120 120))
	)
	(drawing
		(text "COUNTER" (rect 37 169 93 183)(font "Arial" (font_size 8)))
		(line (pt 16 16)(pt 104 16))
		(line (pt 16 168)(pt 104 168))
		(line (pt 16 168)(pt 16 16))
		(line (pt 104 168)(pt 104 16))
		(circle (rect 8 20 16 28))
		(circle (rect 8 132 16 140))
	)
)
(symbol
	(rect 1000 264 1120 448)
	(text "74163" (rect 44 0 85 16)(font "Arial" (font_size 10)))
	(text "inst1" (rect 3 173 26 185)(font "Arial" ))
	(port
		(pt 0 72)
		(input)
		(text "C" (rect 21 64 29 78)(font "Arial" (font_size 8)))
		(text "C" (rect 21 64 29 78)(font "Arial" (font_size 8)))
		(line (pt 0 72)(pt 16 72))
	)
	(port
		(pt 0 56)
		(input)
		(text "B" (rect 21 48 29 62)(font "Arial" (font_size 8)))
		(text "B" (rect 21 48 29 62)(font "Arial" (font_size 8)))
		(line (pt 0 56)(pt 16 56))
	)
	(port
		(pt 0 40)
		(input)
		(text "A" (rect 21 32 30 46)(font "Arial" (font_size 8)))
		(text "A" (rect 21 32 30 46)(font "Arial" (font_size 8)))
		(line (pt 0 40)(pt 16 40))
	)
	(port
		(pt 0 104)
		(input)
		(text "ENT" (rect 21 96 43 110)(font "Arial" (font_size 8)))
		(text "ENT" (rect 21 96 43 110)(font "Arial" (font_size 8)))
		(line (pt 0 104)(pt 16 104))
	)
	(port
		(pt 0 88)
		(input)
		(text "D" (rect 21 80 29 94)(font "Arial" (font_size 8)))
		(text "D" (rect 21 80 29 94)(font "Arial" (font_size 8)))
		(line (pt 0 88)(pt 16 88))
	)
	(port
		(pt 0 136)
		(input)
		(text "CLRN" (rect 21 128 52 142)(font "Arial" (font_size 8)))
		(text "CLRN" (rect 21 128 52 142)(font "Arial" (font_size 8)))
		(line (pt 0 136)(pt 8 136))
	)
	(port
		(pt 0 160)
		(input)
		(text "CLK" (rect 21 152 44 166)(font "Arial" (font_size 8)))
		(text "CLK" (rect 21 152 44 166)(font "Arial" (font_size 8)))
		(line (pt 0 160)(pt 16 160))
	)
	(port
		(pt 0 120)
		(input)
		(text "ENP" (rect 21 112 43 126)(font "Arial" (font_size 8)))
		(text "ENP" (rect 21 112 43 126)(font "Arial" (font_size 8)))
		(line (pt 0 120)(pt 16 120))
	)
	(port
		(pt 0 24)
		(input)
		(text "LDN" (rect 21 17 44 31)(font "Arial" (font_size 8)))
		(text "LDN" (rect 21 17 44 31)(font "Arial" (font_size 8)))
		(line (pt 0 24)(pt 8 24))
	)
	(port
		(pt 120 56)
		(output)
		(text "QA" (rect 85 48 103 62)(font "Arial" (font_size 8)))
		(text "QA" (rect 84 48 102 62)(font "Arial" (font_size 8)))
		(line (pt 104 56)(pt 120 56))
	)
	(port
		(pt 120 72)
		(output)
		(text "QB" (rect 85 64 102 78)(font "Arial" (font_size 8)))
		(text "QB" (rect 85 64 102 78)(font "Arial" (font_size 8)))
		(line (pt 104 72)(pt 120 72))
	)
	(port
		(pt 120 88)
		(output)
		(text "QC" (rect 85 80 102 94)(font "Arial" (font_size 8)))
		(text "QC" (rect 85 80 102 94)(font "Arial" (font_size 8)))
		(line (pt 104 88)(pt 120 88))
	)
	(port
		(pt 120 104)
		(output)
		(text "QD" (rect 85 96 102 110)(font "Arial" (font_size 8)))
		(text "QD" (rect 85 96 102 110)(font "Arial" (font_size 8)))
		(line (pt 104 104)(pt 120 104))
	)
	(port
		(pt 120 120)
		(output)
		(text "RCO" (rect 77 112 102 126)(font "Arial" (font_size 8)))
		(text "RCO" (rect 78 112 103 126)(font "Arial" (font_size 8)))
		(line (pt 104 120)(pt 120 120))
	)
	(drawing
		(text "COUNTER" (rect 37 169 93 183)(font "Arial" (font_size 8)))
		(line (pt 16 16)(pt 104 16))
		(line (pt 16 168)(pt 104 168))
		(line (pt 16 168)(pt 16 16))
		(line (pt 104 168)(pt 104 16))
		(circle (rect 8 20 16 28))
		(circle (rect 8 132 16 140))
	)
)
(symbol
	(rect 344 344 392 376)
	(text "NOT" (rect 1 0 21 10)(font "Arial" (font_size 6)))
	(text "inst7" (rect 3 21 26 33)(font "Arial" ))
	(port
		(pt 0 16)
		(input)
		(text "IN" (rect 2 7 13 19)(font "Courier New" (bold))(invisible))
		(text "IN" (rect 2 7 13 19)(font "Courier New" (bold))(invisible))
		(line (pt 0 16)(pt 13 16))
	)
	(port
		(pt 48 16)
		(output)
		(text "OUT" (rect 32 7 49 19)(font "Courier New" (bold))(invisible))
		(text "OUT" (rect 32 7 49 19)(font "Courier New" (bold))(invisible))
		(line (pt 39 16)(pt 48 16))
	)
	(drawing
		(line (pt 13 25)(pt 13 7))
		(line (pt 13 7)(pt 31 16))
		(line (pt 13 25)(pt 31 16))
		(circle (rect 31 12 39 20))
	)
)
(symbol
	(rect 1152 504 1216 552)
	(text "NOR2" (rect 38 0 63 10)(font "Arial" (font_size 6)))
	(text "inst2" (rect 38 37 61 49)(font "Arial" ))
	(port
		(pt 64 32)
		(input)
		(text "IN2" (rect 2 23 19 35)(font "Courier New" (bold))(invisible))
		(text "IN2" (rect 45 23 62 35)(font "Courier New" (bold))(invisible))
		(line (pt 64 32)(pt 50 32))
	)
	(port
		(pt 64 16)
		(input)
		(text "IN1" (rect 2 7 19 19)(font "Courier New" (bold))(invisible))
		(text "IN1" (rect 45 7 62 19)(font "Courier New" (bold))(invisible))
		(line (pt 64 16)(pt 50 16))
	)
	(port
		(pt 0 24)
		(output)
		(text "OUT" (rect 48 15 65 27)(font "Courier New" (bold))(invisible))
		(text "OUT" (rect -1 15 16 27)(font "Courier New" (bold))(invisible))
		(line (pt 10 24)(pt 0 24))
	)
	(drawing
		(line (pt 52 36)(pt 41 36))
		(line (pt 52 13)(pt 41 13))
		(arc (pt 41 13)(pt 18 24)(rect 11 13 70 72))
		(arc (pt 59 19)(pt 59 29)(rect 47 8 80 41))
		(arc (pt 18 24)(pt 41 35)(rect 11 -23 70 36))
		(circle (rect 10 20 18 28))
	)
	(flipy)
)
(symbol
	(rect 1224 224 1288 272)
	(text "AND3" (rect 1 0 25 10)(font "Arial" (font_size 6)))
	(text "inst3" (rect 3 37 26 49)(font "Arial" ))
	(port
		(pt 0 16)
		(input)
		(text "IN1" (rect 2 7 19 19)(font "Courier New" (bold))(invisible))
		(text "IN1" (rect 2 7 19 19)(font "Courier New" (bold))(invisible))
		(line (pt 0 16)(pt 16 16))
	)
	(port
		(pt 0 24)
		(input)
		(text "IN2" (rect 2 15 19 27)(font "Courier New" (bold))(invisible))
		(text "IN2" (rect 2 15 19 27)(font "Courier New" (bold))(invisible))
		(line (pt 0 24)(pt 16 24))
	)
	(port
		(pt 0 32)
		(input)
		(text "IN3" (rect 2 23 19 35)(font "Courier New" (bold))(invisible))
		(text "IN3" (rect 2 23 19 35)(font "Courier New" (bold))(invisible))
		(line (pt 0 32)(pt 16 32))
	)
	(port
		(pt 64 24)
		(output)
		(text "OUT" (rect 48 15 65 27)(font "Courier New" (bold))(invisible))
		(text "OUT" (rect 48 15 65 27)(font "Courier New" (bold))(invisible))
		(line (pt 43 24)(pt 64 24))
	)
	(drawing
		(line (pt 16 12)(pt 31 12))
		(line (pt 16 37)(pt 31 37))
		(line (pt 16 12)(pt 16 37))
		(arc (pt 31 36)(pt 31 12)(rect 19 12 44 37))
	)
)
(symbol
	(rect 384 248 416 264)
	(text "VCC" (rect 7 0 27 10)(font "Arial" (font_size 6)))
	(text "inst10" (rect 3 5 32 17)(font "Arial" )(invisible))
	(port
		(pt 16 16)
		(output)
		(text "1" (rect 19 7 24 19)(font "Courier New" (bold))(invisible))
		(text "1" (rect 19 7 24 19)(font "Courier New" (bold))(invisible))
		(line (pt 16 16)(pt 16 8))
	)
	(drawing
		(line (pt 8 8)(pt 24 8))
	)
)
(connector
	(pt 592 344)
	(pt 696 344)
)
(connector
	(pt 592 328)
	(pt 680 328)
)
(connector
	(pt 592 312)
	(pt 664 312)
)
(connector
	(pt 472 392)
	(pt 464 392)
)
(connector
	(pt 328 504)
	(pt 448 504)
)
(connector
	(pt 1120 320)
	(pt 1152 320)
)
(connector
	(pt 712 360)
	(pt 712 168)
)
(connector
	(pt 1296 248)
	(pt 1288 248)
)
(connector
	(pt 680 328)
	(pt 680 136)
)
(connector
	(pt 1152 184)
	(pt 1152 256)
)
(connector
	(pt 1152 256)
	(pt 1152 320)
)
(connector
	(pt 696 152)
	(pt 696 248)
)
(connector
	(pt 696 248)
	(pt 696 344)
)
(connector
	(pt 664 120)
	(pt 664 240)
)
(connector
	(pt 664 240)
	(pt 664 312)
)
(connector
	(pt 664 240)
	(pt 1224 240)
)
(connector
	(pt 696 248)
	(pt 1224 248)
)
(connector
	(pt 1152 256)
	(pt 1224 256)
)
(connector
	(pt 664 120)
	(pt 1328 120)
)
(connector
	(pt 680 136)
	(pt 1328 136)
)
(connector
	(pt 696 152)
	(pt 1328 152)
)
(connector
	(pt 712 168)
	(pt 1328 168)
)
(connector
	(pt 1152 184)
	(pt 1328 184)
)
(connector
	(pt 1200 664)
	(pt 1216 664)
)
(connector
	(pt 456 376)
	(pt 456 360)
)
(connector
	(pt 536 376)
	(pt 536 384)
)
(connector
	(pt 456 376)
	(pt 472 376)
)
(connector
	(pt 312 360)
	(pt 344 360)
)
(connector
	(pt 392 360)
	(pt 456 360)
)
(connector
	(pt 456 360)
	(pt 472 360)
)
(connector
	(pt 400 264)
	(pt 400 280)
)
(connector
	(pt 400 280)
	(pt 472 280)
)
(connector
	(pt 472 280)
	(pt 1000 280)
)
(connector
	(pt 696 424)
	(pt 1000 424)
)
(connector
	(pt 448 416)
	(pt 448 504)
)
(connector
	(pt 464 392)
	(pt 464 528)
)
(connector
	(pt 1296 248)
	(pt 1296 520)
)
(connector
	(pt 1216 664)
	(pt 1216 536)
)
(connector
	(pt 1296 520)
	(pt 1216 520)
)
(connector
	(pt 1000 400)
	(pt 904 400)
)
(connector
	(pt 904 528)
	(pt 904 400)
)
(connector
	(pt 464 528)
	(pt 904 528)
)
(connector
	(pt 904 528)
	(pt 1152 528)
)
(connector
	(pt 592 376)
	(pt 1000 376)
)
(connector
	(pt 1000 368)
	(pt 1000 376)
)
(connector
	(pt 1000 376)
	(pt 1000 384)
)
(connector
	(pt 1000 280)
	(pt 1000 288)
)
(connector
	(pt 1000 288)
	(pt 1000 304)
)
(connector
	(pt 1000 304)
	(pt 1000 320)
)
(connector
	(pt 1000 320)
	(pt 1000 336)
)
(connector
	(pt 1000 336)
	(pt 1000 352)
)
(connector
	(pt 472 296)
	(pt 472 280)
)
(connector
	(pt 472 312)
	(pt 472 296)
)
(connector
	(pt 472 344)
	(pt 472 328)
)
(connector
	(pt 472 328)
	(pt 472 312)
)
(connector
	(pt 592 360)
	(pt 712 360)
)
(connector
	(pt 696 416)
	(pt 696 424)
)
(connector
	(pt 448 416)
	(pt 472 416)
)
(connector
	(pt 472 416)
	(pt 696 416)
)
(junction (pt 696 248))
(junction (pt 664 240))
(junction (pt 1152 256))
(junction (pt 456 360))
(junction (pt 472 280))
(junction (pt 904 528))
(junction (pt 1000 376))
(junction (pt 1000 288))
(junction (pt 1000 304))
(junction (pt 1000 320))
(junction (pt 1000 336))
(junction (pt 472 296))
(junction (pt 472 312))
(junction (pt 472 328))
(junction (pt 472 416))
